{
	"info": {
		"_postman_id": "f6aa6242-3773-4600-94a8-b427523c552c",
		"name": "PdS-Practica-1",
		"schema": "https://schema.getpostman.com/json/collection/v2.1.0/collection.json"
	},
	"item": [
		{
			"name": "Clientes",
			"item": [
				{
					"name": "Crear Cliente",
					"request": {
						"method": "POST",
						"header": [],
						"body": {
							"mode": "raw",
							"raw": "{\n\t\"dni\": \"12341234\",\n    \"nombre\": \"John\",\n    \"apellido\": \"Doe\",\n    \"direccion\": \"Calchaqui 1234\",\n    \"telefono\": \"4444-4444\"\n}",
							"options": {
								"raw": {
									"language": "json"
								}
							}
						},
						"url": {
							"raw": "{{domain}}/api/Cliente",
							"host": [
								"{{domain}}"
							],
							"path": [
								"api",
								"Cliente"
							]
						}
					},
					"response": [
						{
							"name": "Nuevo Cliente",
							"originalRequest": {
								"method": "POST",
								"header": [],
								"body": {
									"mode": "raw",
									"raw": "{\n\t\"dni\": \"12341234\",\n    \"nombre\": \"John\",\n    \"apellido\": \"Dow\",\n    \"direccion\": \"Calchaqui 1234\",\n    \"telefono\": \"4444-4444\"\n}",
									"options": {
										"raw": {
											"language": "json"
										}
									}
								},
								"url": {
									"raw": "{{domain}}/api/Cliente",
									"host": [
										"{{domain}}"
									],
									"path": [
										"api",
										"Cliente"
									]
								}
							},
							"status": "Created",
							"code": 201,
							"_postman_previewlanguage": "json",
							"header": [
								{
									"key": "Date",
									"value": "Mon, 11 May 2020 00:41:06 GMT"
								},
								{
									"key": "Content-Type",
									"value": "application/json; charset=utf-8"
								},
								{
									"key": "Server",
									"value": "Kestrel"
								},
								{
									"key": "Transfer-Encoding",
									"value": "chunked"
								}
							],
							"cookie": [],
							"body": "{\n    \"clienteId\": 9,\n    \"dni\": \"12341234\",\n    \"nombre\": \"John\",\n    \"apellido\": \"Dow\",\n    \"direccion\": \"Calchaqui 1234\",\n    \"telefono\": \"4444-4444\",\n    \"carritos\": null\n}"
						}
					]
				},
				{
					"name": "Listado de Clientes",
					"request": {
						"method": "GET",
						"header": [],
						"url": {
							"raw": "{{domain}}/api/Cliente",
							"host": [
								"{{domain}}"
							],
							"path": [
								"api",
								"Cliente"
							],
							"query": [
								{
									"key": "q",
									"value": "papa",
									"disabled": true
								}
							]
						},
						"description": "Lista de clientes.\n\nSe puede buscar clientes por DNI o Nombre y apellido.\n\n\nEjemplo:\n\n`{{domain}}/api/Cliente?q=30999123`\n\n`{{domain}}/api/Cliente?q=John`\n\n`{{domain}}/api/Cliente?q=Doe`"
					},
					"response": [
						{
							"name": "Búsqueda de clientes por DNI",
							"originalRequest": {
								"method": "GET",
								"header": [],
								"url": {
									"raw": "{{domain}}/api/Cliente?q=12341234",
									"host": [
										"{{domain}}"
									],
									"path": [
										"api",
										"Cliente"
									],
									"query": [
										{
											"key": "q",
											"value": "12341234"
										}
									]
								}
							},
							"status": "OK",
							"code": 200,
							"_postman_previewlanguage": "json",
							"header": [
								{
									"key": "Date",
									"value": "Mon, 11 May 2020 00:42:19 GMT"
								},
								{
									"key": "Content-Type",
									"value": "application/json; charset=utf-8"
								},
								{
									"key": "Server",
									"value": "Kestrel"
								},
								{
									"key": "Transfer-Encoding",
									"value": "chunked"
								}
							],
							"cookie": [],
							"body": "[\n    {\n        \"clienteId\": \"8\",\n        \"dni\": \"12341234\",\n        \"nombre\": \"John\",\n        \"apellido\": \"Dow\",\n        \"direccion\": \"Calchaqui 1234\",\n        \"telefono\": \"4444-4444\"\n    },\n    {\n        \"clienteId\": \"9\",\n        \"dni\": \"12341234\",\n        \"nombre\": \"John\",\n        \"apellido\": \"Dow\",\n        \"direccion\": \"Calchaqui 1234\",\n        \"telefono\": \"4444-4444\"\n    }\n]"
						},
						{
							"name": "Listado de todos los Clientes",
							"originalRequest": {
								"method": "GET",
								"header": [],
								"url": {
									"raw": "{{domain}}/api/Cliente",
									"host": [
										"{{domain}}"
									],
									"path": [
										"api",
										"Cliente"
									],
									"query": [
										{
											"key": "q",
											"value": "John",
											"disabled": true
										}
									]
								}
							},
							"status": "OK",
							"code": 200,
							"_postman_previewlanguage": "json",
							"header": [
								{
									"key": "Date",
									"value": "Mon, 11 May 2020 00:41:54 GMT"
								},
								{
									"key": "Content-Type",
									"value": "application/json; charset=utf-8"
								},
								{
									"key": "Server",
									"value": "Kestrel"
								},
								{
									"key": "Transfer-Encoding",
									"value": "chunked"
								}
							],
							"cookie": [],
							"body": "[\n    {\n        \"clienteId\": \"1\",\n        \"dni\": \"30123123\",\n        \"nombre\": \"Jauretche\",\n        \"apellido\": \"Jauretche\",\n        \"direccion\": \"Calchaqui 1234\",\n        \"telefono\": \"4444-4444\"\n    },\n    {\n        \"clienteId\": \"2\",\n        \"dni\": \"30123123\",\n        \"nombre\": \"Mujica\",\n        \"apellido\": \"Mujica\",\n        \"direccion\": \"Calchaqui 1234\",\n        \"telefono\": \"4444-4444\"\n    },\n    {\n        \"clienteId\": \"3\",\n        \"dni\": \"30123123\",\n        \"nombre\": \"Mujica 2\",\n        \"apellido\": \"Mujica 2\",\n        \"direccion\": \"Calchaqui 1234\",\n        \"telefono\": \"4444-4444\"\n    },\n    {\n        \"clienteId\": \"4\",\n        \"dni\": \"30123123\",\n        \"nombre\": \"Pepe\",\n        \"apellido\": \"Mujica 3\",\n        \"direccion\": \"Calchaqui 1234\",\n        \"telefono\": \"4444-4444\"\n    },\n    {\n        \"clienteId\": \"5\",\n        \"dni\": \"30123123\",\n        \"nombre\": \"Pepe\",\n        \"apellido\": \"Mujica 3\",\n        \"direccion\": \"Calchaqui 1234\",\n        \"telefono\": \"4444-4444\"\n    },\n    {\n        \"clienteId\": \"6\",\n        \"dni\": \"30123123\",\n        \"nombre\": \"Pepe\",\n        \"apellido\": \"Mujica 3\",\n        \"direccion\": \"Calchaqui 1234\",\n        \"telefono\": \"4444-4444\"\n    },\n    {\n        \"clienteId\": \"7\",\n        \"dni\": \"34532123\",\n        \"nombre\": \"Alberto\",\n        \"apellido\": \"Papa\",\n        \"direccion\": \"Calchaqui 1234\",\n        \"telefono\": \"4444-4444\"\n    },\n    {\n        \"clienteId\": \"8\",\n        \"dni\": \"12341234\",\n        \"nombre\": \"John\",\n        \"apellido\": \"Dow\",\n        \"direccion\": \"Calchaqui 1234\",\n        \"telefono\": \"4444-4444\"\n    },\n    {\n        \"clienteId\": \"9\",\n        \"dni\": \"12341234\",\n        \"nombre\": \"John\",\n        \"apellido\": \"Dow\",\n        \"direccion\": \"Calchaqui 1234\",\n        \"telefono\": \"4444-4444\"\n    }\n]"
						},
						{
							"name": "Búsqueda de clientes por Nombre",
							"originalRequest": {
								"method": "GET",
								"header": [],
								"url": {
									"raw": "{{domain}}/api/Cliente?q=John",
									"host": [
										"{{domain}}"
									],
									"path": [
										"api",
										"Cliente"
									],
									"query": [
										{
											"key": "q",
											"value": "John"
										}
									]
								}
							},
							"status": "OK",
							"code": 200,
							"_postman_previewlanguage": "json",
							"header": [
								{
									"key": "Date",
									"value": "Mon, 11 May 2020 00:43:04 GMT"
								},
								{
									"key": "Content-Type",
									"value": "application/json; charset=utf-8"
								},
								{
									"key": "Server",
									"value": "Kestrel"
								},
								{
									"key": "Transfer-Encoding",
									"value": "chunked"
								}
							],
							"cookie": [],
							"body": "[\n    {\n        \"clienteId\": \"8\",\n        \"dni\": \"12341234\",\n        \"nombre\": \"John\",\n        \"apellido\": \"Dow\",\n        \"direccion\": \"Calchaqui 1234\",\n        \"telefono\": \"4444-4444\"\n    },\n    {\n        \"clienteId\": \"9\",\n        \"dni\": \"12341234\",\n        \"nombre\": \"John\",\n        \"apellido\": \"Dow\",\n        \"direccion\": \"Calchaqui 1234\",\n        \"telefono\": \"4444-4444\"\n    }\n]"
						},
						{
							"name": "Búsqueda de clientes por Apellido",
							"originalRequest": {
								"method": "GET",
								"header": [],
								"url": {
									"raw": "{{domain}}/api/Cliente?q=papa",
									"host": [
										"{{domain}}"
									],
									"path": [
										"api",
										"Cliente"
									],
									"query": [
										{
											"key": "q",
											"value": "papa"
										}
									]
								}
							},
							"status": "OK",
							"code": 200,
							"_postman_previewlanguage": "json",
							"header": [
								{
									"key": "Date",
									"value": "Mon, 11 May 2020 00:43:36 GMT"
								},
								{
									"key": "Content-Type",
									"value": "application/json; charset=utf-8"
								},
								{
									"key": "Server",
									"value": "Kestrel"
								},
								{
									"key": "Transfer-Encoding",
									"value": "chunked"
								}
							],
							"cookie": [],
							"body": "[\n    {\n        \"clienteId\": \"7\",\n        \"dni\": \"34532123\",\n        \"nombre\": \"Alberto\",\n        \"apellido\": \"Papa\",\n        \"direccion\": \"Calchaqui 1234\",\n        \"telefono\": \"4444-4444\"\n    }\n]"
						}
					]
				}
			],
			"protocolProfileBehavior": {}
		},
		{
			"name": "Productos",
			"item": [
				{
					"name": "Crear Producto",
					"request": {
						"method": "POST",
						"header": [],
						"body": {
							"mode": "raw",
							"raw": "{\n\t\"codigo\": \"0003\",\n    \"marca\": \"Coca Cola\",\n    \"nombre\": \"Coca-Cola x 2L\",\n    \"precio\": 120.99\n}",
							"options": {
								"raw": {
									"language": "json"
								}
							}
						},
						"url": {
							"raw": "{{domain}}/api/Producto",
							"host": [
								"{{domain}}"
							],
							"path": [
								"api",
								"Producto"
							]
						}
					},
					"response": [
						{
							"name": "Nuevo Producto",
							"originalRequest": {
								"method": "POST",
								"header": [],
								"body": {
									"mode": "raw",
									"raw": "{\n\t\"codigo\": \"0003\",\n    \"marca\": \"Coca Cola\",\n    \"nombre\": \"Coca-Cola x 2L\",\n    \"precio\": 120.99\n}",
									"options": {
										"raw": {
											"language": "json"
										}
									}
								},
								"url": {
									"raw": "{{domain}}/api/Producto",
									"host": [
										"{{domain}}"
									],
									"path": [
										"api",
										"Producto"
									]
								}
							},
							"status": "Created",
							"code": 201,
							"_postman_previewlanguage": "json",
							"header": [
								{
									"key": "Date",
									"value": "Mon, 11 May 2020 00:44:07 GMT"
								},
								{
									"key": "Content-Type",
									"value": "application/json; charset=utf-8"
								},
								{
									"key": "Server",
									"value": "Kestrel"
								},
								{
									"key": "Transfer-Encoding",
									"value": "chunked"
								}
							],
							"cookie": [],
							"body": "{\n    \"productoId\": 6,\n    \"codigo\": \"0003\",\n    \"marca\": \"Coca Cola\",\n    \"nombre\": \"Coca-Cola x 2L\",\n    \"precio\": 120.99,\n    \"carritoProductos\": null\n}"
						}
					]
				},
				{
					"name": "Obtener Productos",
					"request": {
						"method": "GET",
						"header": [],
						"url": {
							"raw": "{{domain}}/api/Producto",
							"host": [
								"{{domain}}"
							],
							"path": [
								"api",
								"Producto"
							],
							"query": [
								{
									"key": "codigo",
									"value": "0002",
									"disabled": true
								}
							]
						},
						"description": "Lista de Productos.\n\nSe puede buscar productos por código.\n\nEjemplo:\n\n`{{domain}}/api/Producto?Codigo=0001`\n\n`{{domain}}/api/Producto?Codigo=John`\n\n`{{domain}}/api/Producto?Codigo=Doe`"
					},
					"response": [
						{
							"name": "Listado de todos los Productos",
							"originalRequest": {
								"method": "GET",
								"header": [],
								"url": {
									"raw": "{{domain}}/api/Producto",
									"host": [
										"{{domain}}"
									],
									"path": [
										"api",
										"Producto"
									],
									"query": [
										{
											"key": "codigo",
											"value": "0002",
											"disabled": true
										}
									]
								}
							},
							"status": "OK",
							"code": 200,
							"_postman_previewlanguage": "json",
							"header": [
								{
									"key": "Date",
									"value": "Mon, 11 May 2020 00:44:33 GMT"
								},
								{
									"key": "Content-Type",
									"value": "application/json; charset=utf-8"
								},
								{
									"key": "Server",
									"value": "Kestrel"
								},
								{
									"key": "Transfer-Encoding",
									"value": "chunked"
								}
							],
							"cookie": [],
							"body": "[\n    {\n        \"productoId\": 1,\n        \"codigo\": \"0001\",\n        \"marca\": \"Cruz Malta\",\n        \"nombre\": \"Yerba x Kilo\",\n        \"precio\": 154.34\n    },\n    {\n        \"productoId\": 2,\n        \"codigo\": \"0001\",\n        \"marca\": \"Cruz Malta\",\n        \"nombre\": \"Yerba x Kilo\",\n        \"precio\": 154.34\n    },\n    {\n        \"productoId\": 3,\n        \"codigo\": \"0002\",\n        \"marca\": \"Cruz Malta\",\n        \"nombre\": \"Té en saquitos\",\n        \"precio\": 80.99\n    },\n    {\n        \"productoId\": 4,\n        \"codigo\": \"0003\",\n        \"marca\": \"Coca Cola\",\n        \"nombre\": \"Coca-Cola x 1L\",\n        \"precio\": 80.99\n    },\n    {\n        \"productoId\": 5,\n        \"codigo\": \"0003\",\n        \"marca\": \"Coca Cola\",\n        \"nombre\": \"Coca-Cola x 2L\",\n        \"precio\": 120.99\n    },\n    {\n        \"productoId\": 6,\n        \"codigo\": \"0003\",\n        \"marca\": \"Coca Cola\",\n        \"nombre\": \"Coca-Cola x 2L\",\n        \"precio\": 120.99\n    }\n]"
						},
						{
							"name": "Buscar producto por Código",
							"originalRequest": {
								"method": "GET",
								"header": [],
								"url": {
									"raw": "{{domain}}/api/Producto?codigo=0002",
									"host": [
										"{{domain}}"
									],
									"path": [
										"api",
										"Producto"
									],
									"query": [
										{
											"key": "codigo",
											"value": "0002"
										}
									]
								}
							},
							"status": "OK",
							"code": 200,
							"_postman_previewlanguage": "json",
							"header": [
								{
									"key": "Date",
									"value": "Mon, 11 May 2020 00:44:51 GMT"
								},
								{
									"key": "Content-Type",
									"value": "application/json; charset=utf-8"
								},
								{
									"key": "Server",
									"value": "Kestrel"
								},
								{
									"key": "Transfer-Encoding",
									"value": "chunked"
								}
							],
							"cookie": [],
							"body": "[\n    {\n        \"productoId\": 3,\n        \"codigo\": \"0002\",\n        \"marca\": \"Cruz Malta\",\n        \"nombre\": \"Té en saquitos\",\n        \"precio\": 80.99\n    }\n]"
						}
					]
				}
			],
			"protocolProfileBehavior": {}
		},
		{
			"name": "Ventas",
			"item": [
				{
					"name": "Crear Venta",
					"request": {
						"method": "POST",
						"header": [],
						"body": {
							"mode": "raw",
							"raw": "{\n\t\"clienteId\": 3, \n\t\"productos\": [1, 3, 4]\n}",
							"options": {
								"raw": {
									"language": "json"
								}
							}
						},
						"url": {
							"raw": "{{domain}}/api/Venta",
							"host": [
								"{{domain}}"
							],
							"path": [
								"api",
								"Venta"
							]
						}
					},
					"response": [
						{
							"name": "Nueva Venta",
							"originalRequest": {
								"method": "POST",
								"header": [],
								"body": {
									"mode": "raw",
									"raw": "{\n\t\"clienteId\": 3, \n\t\"productos\": [1, 3, 4]\n}",
									"options": {
										"raw": {
											"language": "json"
										}
									}
								},
								"url": {
									"raw": "{{domain}}/api/Venta",
									"host": [
										"{{domain}}"
									],
									"path": [
										"api",
										"Venta"
									]
								}
							},
							"status": "Created",
							"code": 201,
							"_postman_previewlanguage": "json",
							"header": [
								{
									"key": "Date",
									"value": "Mon, 11 May 2020 00:45:27 GMT"
								},
								{
									"key": "Content-Type",
									"value": "application/json; charset=utf-8"
								},
								{
									"key": "Server",
									"value": "Kestrel"
								},
								{
									"key": "Transfer-Encoding",
									"value": "chunked"
								}
							],
							"cookie": [],
							"body": "{\n    \"ventaId\": 14,\n    \"clienteId\": 3,\n    \"fecha\": \"2020-05-10T21:45:27.4785344-03:00\"\n}"
						}
					]
				},
				{
					"name": "Reporte Ventas del Día",
					"request": {
						"method": "GET",
						"header": [],
						"url": {
							"raw": "{{domain}}/api/Venta",
							"host": [
								"{{domain}}"
							],
							"path": [
								"api",
								"Venta"
							],
							"query": [
								{
									"key": "producto",
									"value": "Yerba",
									"disabled": true
								}
							]
						},
						"description": "Reporte de la ventas del dia (Listado de ventas).\npermite realizar búsquedas por producto en el listado de ventas.\n\nEjemplo: \n\n{{domain}}/api/Venta?producto=Yerba\n\nProducto puede ser el código, nombre o marca del producto."
					},
					"response": [
						{
							"name": "Reporte Ventas del Día filtrando por producto",
							"originalRequest": {
								"method": "GET",
								"header": [],
								"url": {
									"raw": "{{domain}}/api/Venta?producto=Coca",
									"host": [
										"{{domain}}"
									],
									"path": [
										"api",
										"Venta"
									],
									"query": [
										{
											"key": "producto",
											"value": "Coca"
										}
									]
								}
							},
							"status": "OK",
							"code": 200,
							"_postman_previewlanguage": "json",
							"header": [
								{
									"key": "Date",
									"value": "Mon, 11 May 2020 00:46:03 GMT"
								},
								{
									"key": "Content-Type",
									"value": "application/json; charset=utf-8"
								},
								{
									"key": "Server",
									"value": "Kestrel"
								},
								{
									"key": "Transfer-Encoding",
									"value": "chunked"
								}
							],
							"cookie": [],
							"body": "[\n    {\n        \"ventaId\": 13,\n        \"fecha\": \"0001-01-01T00:00:00\",\n        \"nombreCliente\": \"Mujica\",\n        \"apellidoCliente\": \"Mujica\",\n        \"dniCliente\": \"30123123\",\n        \"codigoProducto\": \"0003\",\n        \"marcaProducto\": \"Coca Cola\",\n        \"nombreProducto\": \"Coca-Cola x 1L\",\n        \"precio\": 80.99\n    },\n    {\n        \"ventaId\": 14,\n        \"fecha\": \"0001-01-01T00:00:00\",\n        \"nombreCliente\": \"Mujica 2\",\n        \"apellidoCliente\": \"Mujica 2\",\n        \"dniCliente\": \"30123123\",\n        \"codigoProducto\": \"0003\",\n        \"marcaProducto\": \"Coca Cola\",\n        \"nombreProducto\": \"Coca-Cola x 1L\",\n        \"precio\": 80.99\n    }\n]"
						},
						{
							"name": "Reporte Ventas del Día",
							"originalRequest": {
								"method": "GET",
								"header": [],
								"url": {
									"raw": "{{domain}}/api/Venta",
									"host": [
										"{{domain}}"
									],
									"path": [
										"api",
										"Venta"
									],
									"query": [
										{
											"key": "producto",
											"value": "Yerba",
											"disabled": true
										}
									]
								}
							},
							"status": "OK",
							"code": 200,
							"_postman_previewlanguage": "json",
							"header": [
								{
									"key": "Date",
									"value": "Mon, 11 May 2020 00:45:46 GMT"
								},
								{
									"key": "Content-Type",
									"value": "application/json; charset=utf-8"
								},
								{
									"key": "Server",
									"value": "Kestrel"
								},
								{
									"key": "Transfer-Encoding",
									"value": "chunked"
								}
							],
							"cookie": [],
							"body": "[\n    {\n        \"ventaId\": 10,\n        \"fecha\": \"0001-01-01T00:00:00\",\n        \"nombreCliente\": \"Jauretche\",\n        \"apellidoCliente\": \"Jauretche\",\n        \"dniCliente\": \"30123123\",\n        \"codigoProducto\": \"0001\",\n        \"marcaProducto\": \"Cruz Malta\",\n        \"nombreProducto\": \"Yerba x Kilo\",\n        \"precio\": 154.34\n    },\n    {\n        \"ventaId\": 10,\n        \"fecha\": \"0001-01-01T00:00:00\",\n        \"nombreCliente\": \"Jauretche\",\n        \"apellidoCliente\": \"Jauretche\",\n        \"dniCliente\": \"30123123\",\n        \"codigoProducto\": \"0001\",\n        \"marcaProducto\": \"Cruz Malta\",\n        \"nombreProducto\": \"Yerba x Kilo\",\n        \"precio\": 154.34\n    },\n    {\n        \"ventaId\": 11,\n        \"fecha\": \"0001-01-01T00:00:00\",\n        \"nombreCliente\": \"Jauretche\",\n        \"apellidoCliente\": \"Jauretche\",\n        \"dniCliente\": \"30123123\",\n        \"codigoProducto\": \"0001\",\n        \"marcaProducto\": \"Cruz Malta\",\n        \"nombreProducto\": \"Yerba x Kilo\",\n        \"precio\": 154.34\n    },\n    {\n        \"ventaId\": 11,\n        \"fecha\": \"0001-01-01T00:00:00\",\n        \"nombreCliente\": \"Jauretche\",\n        \"apellidoCliente\": \"Jauretche\",\n        \"dniCliente\": \"30123123\",\n        \"codigoProducto\": \"0001\",\n        \"marcaProducto\": \"Cruz Malta\",\n        \"nombreProducto\": \"Yerba x Kilo\",\n        \"precio\": 154.34\n    },\n    {\n        \"ventaId\": 12,\n        \"fecha\": \"0001-01-01T00:00:00\",\n        \"nombreCliente\": \"Jauretche\",\n        \"apellidoCliente\": \"Jauretche\",\n        \"dniCliente\": \"30123123\",\n        \"codigoProducto\": \"0001\",\n        \"marcaProducto\": \"Cruz Malta\",\n        \"nombreProducto\": \"Yerba x Kilo\",\n        \"precio\": 154.34\n    },\n    {\n        \"ventaId\": 12,\n        \"fecha\": \"0001-01-01T00:00:00\",\n        \"nombreCliente\": \"Jauretche\",\n        \"apellidoCliente\": \"Jauretche\",\n        \"dniCliente\": \"30123123\",\n        \"codigoProducto\": \"0001\",\n        \"marcaProducto\": \"Cruz Malta\",\n        \"nombreProducto\": \"Yerba x Kilo\",\n        \"precio\": 154.34\n    },\n    {\n        \"ventaId\": 13,\n        \"fecha\": \"0001-01-01T00:00:00\",\n        \"nombreCliente\": \"Mujica\",\n        \"apellidoCliente\": \"Mujica\",\n        \"dniCliente\": \"30123123\",\n        \"codigoProducto\": \"0002\",\n        \"marcaProducto\": \"Cruz Malta\",\n        \"nombreProducto\": \"Té en saquitos\",\n        \"precio\": 80.99\n    },\n    {\n        \"ventaId\": 13,\n        \"fecha\": \"0001-01-01T00:00:00\",\n        \"nombreCliente\": \"Mujica\",\n        \"apellidoCliente\": \"Mujica\",\n        \"dniCliente\": \"30123123\",\n        \"codigoProducto\": \"0003\",\n        \"marcaProducto\": \"Coca Cola\",\n        \"nombreProducto\": \"Coca-Cola x 1L\",\n        \"precio\": 80.99\n    },\n    {\n        \"ventaId\": 14,\n        \"fecha\": \"0001-01-01T00:00:00\",\n        \"nombreCliente\": \"Mujica 2\",\n        \"apellidoCliente\": \"Mujica 2\",\n        \"dniCliente\": \"30123123\",\n        \"codigoProducto\": \"0001\",\n        \"marcaProducto\": \"Cruz Malta\",\n        \"nombreProducto\": \"Yerba x Kilo\",\n        \"precio\": 154.34\n    },\n    {\n        \"ventaId\": 14,\n        \"fecha\": \"0001-01-01T00:00:00\",\n        \"nombreCliente\": \"Mujica 2\",\n        \"apellidoCliente\": \"Mujica 2\",\n        \"dniCliente\": \"30123123\",\n        \"codigoProducto\": \"0002\",\n        \"marcaProducto\": \"Cruz Malta\",\n        \"nombreProducto\": \"Té en saquitos\",\n        \"precio\": 80.99\n    },\n    {\n        \"ventaId\": 14,\n        \"fecha\": \"0001-01-01T00:00:00\",\n        \"nombreCliente\": \"Mujica 2\",\n        \"apellidoCliente\": \"Mujica 2\",\n        \"dniCliente\": \"30123123\",\n        \"codigoProducto\": \"0003\",\n        \"marcaProducto\": \"Coca Cola\",\n        \"nombreProducto\": \"Coca-Cola x 1L\",\n        \"precio\": 80.99\n    }\n]"
						}
					]
				}
			],
			"protocolProfileBehavior": {}
		}
	],
	"protocolProfileBehavior": {}
}